%YAML 1.1
%TAG !u! tag:unity3d.com,2011:
--- !u!114 &11400000
MonoBehaviour:
  m_ObjectHideFlags: 0
  m_CorrespondingSourceObject: {fileID: 0}
  m_PrefabInstance: {fileID: 0}
  m_PrefabAsset: {fileID: 0}
  m_GameObject: {fileID: 0}
  m_Enabled: 1
  m_EditorHideFlags: 0
  m_Script: {fileID: 11500000, guid: ed33be71d7f79b6459ed7aba170c0fac, type: 3}
  m_Name: CookieCode
  m_EditorClassIdentifier: 
  ChewTime: 3
  Role: 1
  Sprite: {fileID: 21300000, guid: c12dea18e528e4940800a6396f00b8e7, type: 3}
  ManySprite: {fileID: 21300000, guid: cfa9e2f7cf453264488877c0332f2ee9, type: 3}
