%YAML 1.1
%TAG !u! tag:unity3d.com,2011:
--- !u!114 &11400000
MonoBehaviour:
  m_ObjectHideFlags: 0
  m_CorrespondingSourceObject: {fileID: 0}
  m_PrefabInstance: {fileID: 0}
  m_PrefabAsset: {fileID: 0}
  m_GameObject: {fileID: 0}
  m_Enabled: 1
  m_EditorHideFlags: 0
  m_Script: {fileID: 11500000, guid: ed33be71d7f79b6459ed7aba170c0fac, type: 3}
  m_Name: CookieArt
  m_EditorClassIdentifier: 
  ChewTime: 3
  Role: 0
  Sprite: {fileID: 21300000, guid: ddcd27139789b6e4c88e9113814fcc59, type: 3}
  ManySprite: {fileID: 21300000, guid: d106b64758ad6b7488e899262f421f16, type: 3}
