%YAML 1.1
%TAG !u! tag:unity3d.com,2011:
--- !u!29 &1
OcclusionCullingSettings:
  m_ObjectHideFlags: 0
  serializedVersion: 2
  m_OcclusionBakeSettings:
    smallestOccluder: 5
    smallestHole: 0.25
    backfaceThreshold: 100
  m_SceneGUID: 00000000000000000000000000000000
  m_OcclusionCullingData: {fileID: 0}
--- !u!104 &2
RenderSettings:
  m_ObjectHideFlags: 0
  serializedVersion: 9
  m_Fog: 0
  m_FogColor: {r: 0.5, g: 0.5, b: 0.5, a: 1}
  m_FogMode: 3
  m_FogDensity: 0.01
  m_LinearFogStart: 0
  m_LinearFogEnd: 300
  m_AmbientSkyColor: {r: 0.212, g: 0.227, b: 0.259, a: 1}
  m_AmbientEquatorColor: {r: 0.114, g: 0.125, b: 0.133, a: 1}
  m_AmbientGroundColor: {r: 0.047, g: 0.043, b: 0.035, a: 1}
  m_AmbientIntensity: 1
  m_AmbientMode: 3
  m_SubtractiveShadowColor: {r: 0.42, g: 0.478, b: 0.627, a: 1}
  m_SkyboxMaterial: {fileID: 0}
  m_HaloStrength: 0.5
  m_FlareStrength: 1
  m_FlareFadeSpeed: 3
  m_HaloTexture: {fileID: 0}
  m_SpotCookie: {fileID: 10001, guid: 0000000000000000e000000000000000, type: 0}
  m_DefaultReflectionMode: 0
  m_DefaultReflectionResolution: 128
  m_ReflectionBounces: 1
  m_ReflectionIntensity: 1
  m_CustomReflection: {fileID: 0}
  m_Sun: {fileID: 0}
  m_IndirectSpecularColor: {r: 0, g: 0, b: 0, a: 1}
  m_UseRadianceAmbientProbe: 0
--- !u!157 &3
LightmapSettings:
  m_ObjectHideFlags: 0
  serializedVersion: 11
  m_GIWorkflowMode: 1
  m_GISettings:
    serializedVersion: 2
    m_BounceScale: 1
    m_IndirectOutputScale: 1
    m_AlbedoBoost: 1
    m_EnvironmentLightingMode: 0
    m_EnableBakedLightmaps: 0
    m_EnableRealtimeLightmaps: 0
  m_LightmapEditorSettings:
    serializedVersion: 12
    m_Resolution: 2
    m_BakeResolution: 40
    m_AtlasSize: 1024
    m_AO: 0
    m_AOMaxDistance: 1
    m_CompAOExponent: 1
    m_CompAOExponentDirect: 0
    m_ExtractAmbientOcclusion: 0
    m_Padding: 2
    m_LightmapParameters: {fileID: 0}
    m_LightmapsBakeMode: 1
    m_TextureCompression: 1
    m_FinalGather: 0
    m_FinalGatherFiltering: 1
    m_FinalGatherRayCount: 256
    m_ReflectionCompression: 2
    m_MixedBakeMode: 2
    m_BakeBackend: 1
    m_PVRSampling: 1
    m_PVRDirectSampleCount: 32
    m_PVRSampleCount: 512
    m_PVRBounces: 2
    m_PVREnvironmentSampleCount: 256
    m_PVREnvironmentReferencePointCount: 2048
    m_PVRFilteringMode: 1
    m_PVRDenoiserTypeDirect: 1
    m_PVRDenoiserTypeIndirect: 1
    m_PVRDenoiserTypeAO: 1
    m_PVRFilterTypeDirect: 0
    m_PVRFilterTypeIndirect: 0
    m_PVRFilterTypeAO: 0
    m_PVREnvironmentMIS: 1
    m_PVRCulling: 1
    m_PVRFilteringGaussRadiusDirect: 1
    m_PVRFilteringGaussRadiusIndirect: 5
    m_PVRFilteringGaussRadiusAO: 2
    m_PVRFilteringAtrousPositionSigmaDirect: 0.5
    m_PVRFilteringAtrousPositionSigmaIndirect: 2
    m_PVRFilteringAtrousPositionSigmaAO: 1
    m_ExportTrainingData: 0
    m_TrainingDataDestination: TrainingData
    m_LightProbeSampleCountMultiplier: 4
  m_LightingDataAsset: {fileID: 0}
  m_UseShadowmask: 1
--- !u!196 &4
NavMeshSettings:
  serializedVersion: 2
  m_ObjectHideFlags: 0
  m_BuildSettings:
    serializedVersion: 2
    agentTypeID: 0
    agentRadius: 0.5
    agentHeight: 2
    agentSlope: 45
    agentClimb: 0.4
    ledgeDropHeight: 0
    maxJumpAcrossDistance: 0
    minRegionArea: 2
    manualCellSize: 0
    cellSize: 0.16666667
    manualTileSize: 0
    tileSize: 256
    accuratePlacement: 0
    debug:
      m_Flags: 0
  m_NavMeshData: {fileID: 0}
--- !u!1001 &1404002437
PrefabInstance:
  m_ObjectHideFlags: 0
  serializedVersion: 2
  m_Modification:
    m_TransformParent: {fileID: 0}
    m_Modifications:
    - target: {fileID: 7946654780748080433, guid: 1eed03439543bb54a89d7d7b77ba6322,
        type: 3}
      propertyPath: m_LocalPosition.x
      value: 0
      objectReference: {fileID: 0}
    - target: {fileID: 7946654780748080433, guid: 1eed03439543bb54a89d7d7b77ba6322,
        type: 3}
      propertyPath: m_LocalPosition.y
      value: 0
      objectReference: {fileID: 0}
    - target: {fileID: 7946654780748080433, guid: 1eed03439543bb54a89d7d7b77ba6322,
        type: 3}
      propertyPath: m_LocalPosition.z
      value: 0
      objectReference: {fileID: 0}
    - target: {fileID: 7946654780748080433, guid: 1eed03439543bb54a89d7d7b77ba6322,
        type: 3}
      propertyPath: m_LocalRotation.x
      value: 0
      objectReference: {fileID: 0}
    - target: {fileID: 7946654780748080433, guid: 1eed03439543bb54a89d7d7b77ba6322,
        type: 3}
      propertyPath: m_LocalRotation.y
      value: 0
      objectReference: {fileID: 0}
    - target: {fileID: 7946654780748080433, guid: 1eed03439543bb54a89d7d7b77ba6322,
        type: 3}
      propertyPath: m_LocalRotation.z
      value: 0
      objectReference: {fileID: 0}
    - target: {fileID: 7946654780748080433, guid: 1eed03439543bb54a89d7d7b77ba6322,
        type: 3}
      propertyPath: m_LocalRotation.w
      value: 1
      objectReference: {fileID: 0}
    - target: {fileID: 7946654780748080433, guid: 1eed03439543bb54a89d7d7b77ba6322,
        type: 3}
      propertyPath: m_RootOrder
      value: 1
      objectReference: {fileID: 0}
    - target: {fileID: 7946654780748080433, guid: 1eed03439543bb54a89d7d7b77ba6322,
        type: 3}
      propertyPath: m_LocalEulerAnglesHint.x
      value: 0
      objectReference: {fileID: 0}
    - target: {fileID: 7946654780748080433, guid: 1eed03439543bb54a89d7d7b77ba6322,
        type: 3}
      propertyPath: m_LocalEulerAnglesHint.y
      value: 0
      objectReference: {fileID: 0}
    - target: {fileID: 7946654780748080433, guid: 1eed03439543bb54a89d7d7b77ba6322,
        type: 3}
      propertyPath: m_LocalEulerAnglesHint.z
      value: 0
      objectReference: {fileID: 0}
    - target: {fileID: 7946654780748080439, guid: 1eed03439543bb54a89d7d7b77ba6322,
        type: 3}
      propertyPath: m_Name
      value: GameContext
      objectReference: {fileID: 0}
    m_RemovedComponents: []
  m_SourcePrefab: {fileID: 100100000, guid: 1eed03439543bb54a89d7d7b77ba6322, type: 3}
--- !u!1001 &2725757710724694499
PrefabInstance:
  m_ObjectHideFlags: 0
  serializedVersion: 2
  m_Modification:
    m_TransformParent: {fileID: 0}
    m_Modifications:
    - target: {fileID: 1790142762607795708, guid: 4dd7e84eccda0f34f886af6e74f8471d,
        type: 3}
      propertyPath: m_Name
      value: GameManager
      objectReference: {fileID: 0}
    - target: {fileID: 5105968257305903173, guid: 4dd7e84eccda0f34f886af6e74f8471d,
        type: 3}
      propertyPath: m_LocalPosition.x
      value: 979.77045
      objectReference: {fileID: 0}
    - target: {fileID: 5105968257305903173, guid: 4dd7e84eccda0f34f886af6e74f8471d,
        type: 3}
      propertyPath: m_LocalPosition.y
      value: 675.982
      objectReference: {fileID: 0}
    - target: {fileID: 5105968257305903173, guid: 4dd7e84eccda0f34f886af6e74f8471d,
        type: 3}
      propertyPath: m_LocalPosition.z
      value: -309.89633
      objectReference: {fileID: 0}
    - target: {fileID: 5105968257305903173, guid: 4dd7e84eccda0f34f886af6e74f8471d,
        type: 3}
      propertyPath: m_LocalRotation.x
      value: 0
      objectReference: {fileID: 0}
    - target: {fileID: 5105968257305903173, guid: 4dd7e84eccda0f34f886af6e74f8471d,
        type: 3}
      propertyPath: m_LocalRotation.y
      value: 0
      objectReference: {fileID: 0}
    - target: {fileID: 5105968257305903173, guid: 4dd7e84eccda0f34f886af6e74f8471d,
        type: 3}
      propertyPath: m_LocalRotation.z
      value: 0
      objectReference: {fileID: 0}
    - target: {fileID: 5105968257305903173, guid: 4dd7e84eccda0f34f886af6e74f8471d,
        type: 3}
      propertyPath: m_LocalRotation.w
      value: 1
      objectReference: {fileID: 0}
    - target: {fileID: 5105968257305903173, guid: 4dd7e84eccda0f34f886af6e74f8471d,
        type: 3}
      propertyPath: m_RootOrder
      value: 0
      objectReference: {fileID: 0}
    - target: {fileID: 5105968257305903173, guid: 4dd7e84eccda0f34f886af6e74f8471d,
        type: 3}
      propertyPath: m_LocalEulerAnglesHint.x
      value: 0
      objectReference: {fileID: 0}
    - target: {fileID: 5105968257305903173, guid: 4dd7e84eccda0f34f886af6e74f8471d,
        type: 3}
      propertyPath: m_LocalEulerAnglesHint.y
      value: 0
      objectReference: {fileID: 0}
    - target: {fileID: 5105968257305903173, guid: 4dd7e84eccda0f34f886af6e74f8471d,
        type: 3}
      propertyPath: m_LocalEulerAnglesHint.z
      value: 0
      objectReference: {fileID: 0}
    - target: {fileID: 8482708564920665993, guid: 4dd7e84eccda0f34f886af6e74f8471d,
        type: 3}
      propertyPath: DevelopmentPhases.Array.size
      value: 3
      objectReference: {fileID: 0}
    - target: {fileID: 8482708564920665993, guid: 4dd7e84eccda0f34f886af6e74f8471d,
        type: 3}
      propertyPath: GameModes.Array.size
      value: 4
      objectReference: {fileID: 0}
    - target: {fileID: 8482708564920665993, guid: 4dd7e84eccda0f34f886af6e74f8471d,
        type: 3}
      propertyPath: AutoLoadStartMenu
      value: 1
      objectReference: {fileID: 0}
    - target: {fileID: 8482708564920665993, guid: 4dd7e84eccda0f34f886af6e74f8471d,
        type: 3}
      propertyPath: StartMenuName
      value: StartMenu
      objectReference: {fileID: 0}
    - target: {fileID: 8482708564920665993, guid: 4dd7e84eccda0f34f886af6e74f8471d,
        type: 3}
      propertyPath: GameSceneName
      value: Game
      objectReference: {fileID: 0}
    - target: {fileID: 8482708564920665993, guid: 4dd7e84eccda0f34f886af6e74f8471d,
        type: 3}
      propertyPath: MenuOverlaySceneName
      value: InGameMenu
      objectReference: {fileID: 0}
    - target: {fileID: 8482708564920665993, guid: 4dd7e84eccda0f34f886af6e74f8471d,
        type: 3}
      propertyPath: DevelopmentPhases.Array.data[0]
      value: 
      objectReference: {fileID: 11400000, guid: 88204bdbfe45cfb49afec3f960066566,
        type: 2}
    - target: {fileID: 8482708564920665993, guid: 4dd7e84eccda0f34f886af6e74f8471d,
        type: 3}
      propertyPath: DevelopmentPhases.Array.data[1]
      value: 
      objectReference: {fileID: 11400000, guid: c57feb024a4727e4ab30b69e6de89e05,
        type: 2}
    - target: {fileID: 8482708564920665993, guid: 4dd7e84eccda0f34f886af6e74f8471d,
        type: 3}
      propertyPath: DevelopmentPhases.Array.data[2]
      value: 
      objectReference: {fileID: 11400000, guid: 2fa1f4f98592cd14b8fc59809f4fdb05,
        type: 2}
    - target: {fileID: 8482708564920665993, guid: 4dd7e84eccda0f34f886af6e74f8471d,
        type: 3}
      propertyPath: StartGameMode
      value: 1
      objectReference: {fileID: 0}
    - target: {fileID: 8482708564920665993, guid: 4dd7e84eccda0f34f886af6e74f8471d,
        type: 3}
      propertyPath: GameModes.Array.data[4]
      value: 
      objectReference: {fileID: 11400000, guid: 49e9220acbdac834d85d40af49ba1792,
        type: 2}
    - target: {fileID: 8482708564920665993, guid: 4dd7e84eccda0f34f886af6e74f8471d,
        type: 3}
      propertyPath: LastDevelopmentPhase
      value: 
      objectReference: {fileID: 11400000, guid: 2fa1f4f98592cd14b8fc59809f4fdb05,
        type: 2}
    m_RemovedComponents: []
  m_SourcePrefab: {fileID: 100100000, guid: 4dd7e84eccda0f34f886af6e74f8471d, type: 3}
